docs/Expt2/m1101.1346253107.vcd
$date August 29 2012 18:11:47 $end
$version Virtual Lab: FPGA Automation Ver 0.9 $end
$timescale 1 ns $end
$scope module m1101 $end
$var wire 1 ! clk $end
$var wire 1 @ rst $end
$var wire 1 # inp $end
$var wire 1 $ outp $end
$upscope  $end
$enddefinitions  $end
$comment 
Note: VCD Generated from Input and Output Signals from the FPGA
 $end
#0
1!
1@
0#
0$
#1
0!
#2
1!
#3
0!
#4
1!
0@
1#
#5
0!
#6
1!
#7
0!
#8
1!
0#
#9
0!
#10
1!
1#
#11
0!
#12
1!
1$
#13
0!
#14
1!
0#
0$
#15
0!
#16
1!
1#
#17
0!
#18
1!
1$
#19
0!
#20
1!
0$
